0000.000 (1) Opened log file at time: Wed, 14 Mar 2018 12:28:50 -0500 on http://dev.moneymartdirect.com/devtest
0000.001 (1) UpdraftPlus WordPress backup plugin (https://updraftplus.com): 2.14.4.1 WP: 4.9.4 PHP: 7.0.28 (cgi-fcgi, Linux server.moneymartdirect.com 3.10.0-123.4.2.el7.x86_64 #1 SMP Mon Jun 30 16:09:14 UTC 2014 x86_64) MySQL: 5.5.5 WPLANG: en_US Server: Apache safe_mode: 0 max_execution_time: 900 memory_limit: 256M (used: 7.1M | 10M) multisite: N openssl: OpenSSL 1.0.2n  7 Dec 2017 mcrypt: Y LANG:  ZipArchive::addFile: Y
0000.329 (1) Free space on disk containing Updraft's temporary directory: 841916.9 MB
0000.333 (1) This backup task (efc3f99630f0) is either complete or began over 2 days ago: ending (1521048530.2219, ) (existing jobdata keys: )
